{
  "testId" : "1-studenti.gspec",
  "name" : "studenti.gspec",
  "report" : {
    "nodes" : [ {
      "name" : "Simple check",
      "status" : "info",
      "nodes" : [ {
        "name" : "check  studenti.gspec --url http://localhost/studenti.html --size 1024x768 --htmlreport StudentiIzvjestaj",
        "status" : "info",
        "nodes" : [ {
          "name" : "Check layout: studenti.gspec included tags: ",
          "status" : "info",
          "time" : 1541539301627,
          "sections" : [ {
            "name" : "Header",
            "place" : {
              "filePath" : "studenti.gspec",
              "lineNumber" : 11
            },
            "objects" : [ {
              "name" : "header.logo",
              "specs" : [ {
                "status" : "info",
                "place" : {
                  "filePath" : "studenti.gspec",
                  "lineNumber" : 20
                },
                "name" : "inside header 0 to 5px left top",
                "highlight" : [ "header.logo", "header" ]
              }, {
                "status" : "info",
                "place" : {
                  "filePath" : "studenti.gspec",
                  "lineNumber" : 21
                },
                "name" : "width 40px",
                "highlight" : [ "header.logo" ]
              }, {
                "status" : "info",
                "place" : {
                  "filePath" : "studenti.gspec",
                  "lineNumber" : 22
                },
                "name" : "height 4% of screen/width",
                "highlight" : [ "header.logo" ]
              } ]
            }, {
              "name" : "header.naslov",
              "specs" : [ {
                "status" : "info",
                "place" : {
                  "filePath" : "studenti.gspec",
                  "lineNumber" : 25
                },
                "name" : "inside header 0 to 5px top right",
                "highlight" : [ "header.naslov", "header" ]
              } ]
            }, {
              "name" : "header.meni",
              "specs" : [ {
                "status" : "info",
                "place" : {
                  "filePath" : "studenti.gspec",
                  "lineNumber" : 34
                },
                "name" : "inside header 0 to 10px bottom",
                "highlight" : [ "header.meni", "header" ]
              } ]
            } ]
          }, {
            "name" : "Main section",
            "place" : {
              "filePath" : "studenti.gspec",
              "lineNumber" : 50
            },
            "objects" : [ {
              "name" : "side",
              "specs" : [ {
                "status" : "info",
                "place" : {
                  "filePath" : "studenti.gspec",
                  "lineNumber" : 52
                },
                "name" : "height 500px",
                "highlight" : [ "side" ]
              }, {
                "status" : "info",
                "place" : {
                  "filePath" : "studenti.gspec",
                  "lineNumber" : 53
                },
                "name" : "inside viewport 0 to 2px left",
                "highlight" : [ "side", "viewport" ]
              }, {
                "status" : "info",
                "place" : {
                  "filePath" : "studenti.gspec",
                  "lineNumber" : 54
                },
                "name" : "left-of glavniSadrzaj 0 to 1px",
                "highlight" : [ "side", "glavniSadrzaj" ]
              }, {
                "status" : "info",
                "place" : {
                  "filePath" : "studenti.gspec",
                  "lineNumber" : 55
                },
                "name" : "width ~35% of screen/width",
                "highlight" : [ "side" ]
              } ]
            }, {
              "name" : "glavniSadrzaj",
              "specs" : [ {
                "status" : "info",
                "place" : {
                  "filePath" : "studenti.gspec",
                  "lineNumber" : 57
                },
                "name" : "height 500px",
                "highlight" : [ "glavniSadrzaj" ]
              }, {
                "status" : "info",
                "place" : {
                  "filePath" : "studenti.gspec",
                  "lineNumber" : 58
                },
                "name" : "inside viewport 0 to 2px right",
                "highlight" : [ "glavniSadrzaj", "viewport" ]
              }, {
                "status" : "info",
                "place" : {
                  "filePath" : "studenti.gspec",
                  "lineNumber" : 59
                },
                "name" : "right-of side 0 to 1px",
                "highlight" : [ "glavniSadrzaj", "side" ]
              }, {
                "status" : "info",
                "place" : {
                  "filePath" : "studenti.gspec",
                  "lineNumber" : 60
                },
                "name" : "width ~65% of screen/width",
                "highlight" : [ "glavniSadrzaj" ]
              } ]
            } ]
          }, {
            "name" : "Footer",
            "place" : {
              "filePath" : "studenti.gspec",
              "lineNumber" : 71
            },
            "objects" : [ {
              "name" : "footer",
              "specs" : [ {
                "status" : "info",
                "place" : {
                  "filePath" : "studenti.gspec",
                  "lineNumber" : 73
                },
                "name" : "text is \"Web tehnologije 2018/19\"",
                "highlight" : [ "footer" ]
              } ]
            } ]
          } ],
          "objects" : {
            "header.logo" : {
              "area" : [ 2, 2, 40, 41 ]
            },
            "side" : {
              "area" : [ 0, 82, 354, 500 ]
            },
            "glavniSadrzaj" : {
              "area" : [ 354, 82, 657, 500 ]
            },
            "viewport" : {
              "area" : [ 0, 0, 1012, 687 ]
            },
            "footer" : {
              "area" : [ 0, 582, 1012, 38 ]
            },
            "header" : {
              "area" : [ 0, 0, 1012, 82 ]
            },
            "header.meni" : {
              "area" : [ 2, 62, 1008, 18 ]
            },
            "header.naslov" : {
              "area" : [ 766, 2, 245, 38 ]
            }
          },
          "screenshot" : "layout-1-screenshot.png",
          "type" : "layout"
        } ],
        "time" : 1541539299619,
        "type" : "node"
      } ],
      "time" : 1541539288950,
      "type" : "node"
    } ]
  }
}