{
  "testId" : "1-login.gspec",
  "name" : "login.gspec",
  "report" : {
    "nodes" : [ {
      "name" : "Simple check",
      "status" : "info",
      "nodes" : [ {
        "name" : "check  login.gspec --url http://localhost/login.html --size 1024x768 --htmlreport LoginIzvjestaj",
        "status" : "info",
        "nodes" : [ {
          "name" : "Check layout: login.gspec included tags: ",
          "status" : "info",
          "time" : 1541539209946,
          "sections" : [ ],
          "objects" : { },
          "screenshot" : "layout-1-screenshot.png",
          "type" : "layout"
        } ],
        "time" : 1541539209112,
        "type" : "node"
      } ],
      "time" : 1541539197832,
      "type" : "node"
    } ]
  }
}